module mangaStorage

go 1.21

require (
	github.com/andybalholm/brotli v1.0.5 // indirect
	github.com/aws/aws-sdk-go-v2 v1.25.3 // indirect
	github.com/aws/aws-sdk-go-v2/aws/protocol/eventstream v1.6.1 // indirect
	github.com/aws/aws-sdk-go-v2/config v1.27.7 // indirect
	github.com/aws/aws-sdk-go-v2/credentials v1.17.7 // indirect
	github.com/aws/aws-sdk-go-v2/feature/ec2/imds v1.15.3 // indirect
	github.com/aws/aws-sdk-go-v2/internal/configsources v1.3.3 // indirect
	github.com/aws/aws-sdk-go-v2/internal/endpoints/v2 v2.6.3 // indirect
	github.com/aws/aws-sdk-go-v2/internal/ini v1.8.0 // indirect
	github.com/aws/aws-sdk-go-v2/internal/v4a v1.3.3 // indirect
	github.com/aws/aws-sdk-go-v2/service/internal/accept-encoding v1.11.1 // indirect
	github.com/aws/aws-sdk-go-v2/service/internal/checksum v1.3.5 // indirect
	github.com/aws/aws-sdk-go-v2/service/internal/presigned-url v1.11.5 // indirect
	github.com/aws/aws-sdk-go-v2/service/internal/s3shared v1.17.3 // indirect
	github.com/aws/aws-sdk-go-v2/service/s3 v1.51.4 // indirect
	github.com/aws/aws-sdk-go-v2/service/sso v1.20.2 // indirect
	github.com/aws/aws-sdk-go-v2/service/ssooidc v1.23.2 // indirect
	github.com/aws/aws-sdk-go-v2/service/sts v1.28.4 // indirect
	github.com/aws/smithy-go v1.20.1 // indirect
	github.com/dustin/go-humanize v1.0.1 // indirect
	github.com/fsnotify/fsnotify v1.7.0 // indirect
	github.com/go-ini/ini v1.67.0 // indirect
	github.com/gofiber/fiber/v2 v2.52.2 // indirect
	github.com/google/uuid v1.6.0 // indirect
	github.com/hashicorp/hcl v1.0.0 // indirect
	github.com/json-iterator/go v1.1.12 // indirect
	github.com/klauspost/compress v1.17.7 // indirect
	github.com/klauspost/cpuid/v2 v2.2.7 // indirect
	github.com/magiconair/properties v1.8.7 // indirect
	github.com/mattn/go-colorable v0.1.13 // indirect
	github.com/mattn/go-isatty v0.0.20 // indirect
	github.com/mattn/go-runewidth v0.0.15 // indirect
	github.com/minio/md5-simd v1.1.2 // indirect
	github.com/minio/minio-go v6.0.14+incompatible // indirect
	github.com/minio/minio-go/v7 v7.0.68 // indirect
	github.com/minio/sha256-simd v1.0.1 // indirect
	github.com/mitchellh/go-homedir v1.1.0 // indirect
	github.com/mitchellh/mapstructure v1.5.0 // indirect
	github.com/modern-go/concurrent v0.0.0-20180306012644-bacd9c7ef1dd // indirect
	github.com/modern-go/reflect2 v1.0.2 // indirect
	github.com/pelletier/go-toml/v2 v2.1.0 // indirect
	github.com/rivo/uniseg v0.2.0 // indirect
	github.com/rs/xid v1.5.0 // indirect
	github.com/sagikazarmark/locafero v0.4.0 // indirect
	github.com/sagikazarmark/slog-shim v0.1.0 // indirect
	github.com/sirupsen/logrus v1.9.3 // indirect
	github.com/sourcegraph/conc v0.3.0 // indirect
	github.com/spf13/afero v1.11.0 // indirect
	github.com/spf13/cast v1.6.0 // indirect
	github.com/spf13/pflag v1.0.5 // indirect
	github.com/spf13/viper v1.18.2 // indirect
	github.com/subosito/gotenv v1.6.0 // indirect
	github.com/valyala/bytebufferpool v1.0.0 // indirect
	github.com/valyala/fasthttp v1.51.0 // indirect
	github.com/valyala/tcplisten v1.0.0 // indirect
	go.uber.org/atomic v1.9.0 // indirect
	go.uber.org/multierr v1.9.0 // indirect
	golang.org/x/crypto v0.21.0 // indirect
	golang.org/x/exp v0.0.0-20230905200255-921286631fa9 // indirect
	golang.org/x/net v0.22.0 // indirect
	golang.org/x/sys v0.18.0 // indirect
	golang.org/x/text v0.14.0 // indirect
	gopkg.in/ini.v1 v1.67.0 // indirect
	gopkg.in/yaml.v3 v3.0.1 // indirect
)
